{
    "status":"ok",
    "description":null,
    "resultType":"object",
    "result":
        {
            "name":"ApplicationField",
            "fields":
                [
                    {
                        "id":4,
                        "isVisible":1,
                        "name":"Номер телефона",
                        "typeName":"PhoneNumber",
                        "isReadonly":0,
                        "kind":7,
                        "requirementKind":0,
                        "orderBy":4,
                        "groupId":0
                    },
                    {
                        "id":6,
                        "isVisible":1,
                        "name":"Рекомендация друга (код)",
                        "typeName":"Code",
                        "isReadonly":0,
                        "kind":1,
                        "requirementKind":2,
                        "orderBy":11,
                        "groupId":1
                    },
                    {
                        "id":2,
                        "isVisible":1,
                        "name":"Пол",
                        "typeName":"Gender",
                        "isReadonly":0,
                        "kind":6,
                        "requirementKind":0,
                        "orderBy":2,
                        "groupId":0
                    },
                    {
                        "id":3,
                        "isVisible":0,
                        "name":"Дата рождения",
                        "typeName":"BirthDate",
                        "isReadonly":0,
                        "kind":2,
                        "requirementKind":2,
                        "orderBy":3,
                        "groupId":0
                    },
                    {
                        "id":5,
                        "isVisible":1,
                        "name":"Адрес эл. Почты",
                        "typeName":"Email",
                        "isReadonly":0,
                        "kind":3,
                        "requirementKind":0,
                        "orderBy":5,
                        "groupId":0
                    },
                    {
                        "id":1,
                        "isVisible":1,
                        "name":"Фамилия и имя",
                        "typeName":"FIO",
                        "isReadonly":0,
                        "kind":0,
                        "requirementKind":0,
                        "orderBy":1,
                        "groupId":0
                    },
                    {
                        "id":7,
                        "isVisible":1,
                        "name":"Обязательныe поля",
                        "typeName":"GroupRequired",
                        "isReadonly":0,
                        "kind":9,
                        "requirementKind":2,
                        "orderBy":0,
                        "groupId":0
                    },
                    {
                        "id":8,
                        "isVisible":1,
                        "name":"Желательные для заполнения",
                        "typeName":"GroupWhyNot",
                        "isReadonly":0,
                        "kind":9,
                        "requirementKind":2,
                        "orderBy":10,
                        "groupId":1
                    },
                    {
                        "id":9,
                        "isVisible":1,
                        "name":"Возраст",
                        "typeName":"Age",
                        "isReadonly":0,
                        "kind":8,
                        "requirementKind":1,
                        "orderBy":13,
                        "groupId":1,
                        "items":
                            [
                                {
                                    "value":0,
                                    "name":"от 18 до 22 лет",
                                    "orderBy":0
                                },
                                {
                                    "value":1,
                                    "name":"от 23 до 29 лет",
                                    "orderBy":1
                                },
                                {
                                    "value":2,
                                    "name":"от 30 до 44 лет",
                                    "orderBy":2
                                },
                                {
                                    "value":3,
                                    "name":"от 45 до 60 лет",
                                    "orderBy":3
                                }
                             ]
                 },
                 {
                    "id":11,
                    "isVisible":1,
                    "name":"Семейное положение",
                    "typeName":"MaritalStatus",
                    "isReadonly":0,
                    "kind":8,
                    "requirementKind":1,
                    "orderBy":12,
                    "groupId":1,
                    "items":
                        [
                            {
                                "value":0,
                                "name":"женат/замужем",
                                "orderBy":0
                            },
                            {
                                "value":1,
                                "name":"не женат/не замужем",
                                "orderBy":1
                            },
                            {
                                "value":2,
                                "name":"вдова/вдовец",
                                "orderBy":2
                            },
                            {
                                "value":3,
                                "name":"гражданский брак",
                                "orderBy":3
                            }
                         ]
                 },
                 {
                    "id":13,
                    "isVisible":1,
                    "name":"Должность",
                    "typeName":"EmpType",
                    "isReadonly":0,
                    "kind":8,
                    "requirementKind":1,
                    "orderBy":15,
                    "groupId":1,
                    "items":
                        [
                            {
                                "value":0,
                                "name":"рабочий",
                                "orderBy":0
                            },
                            {
                                "value":1,
                                "name":"государственный служащий",
                                "orderBy":1
                            },
                            {
                                "value":2,
                                "name":"коммерческий сотрудник",
                                "orderBy":2
                            }
                         ]
                 },
                 {
                    "id":10,
                    "isVisible":1,
                    "name":"Количество детей",
                    "typeName":"Children",
                    "isReadonly":0,
                    "kind":8,
                    "requirementKind":1,
                    "orderBy":13,
                    "groupId":1,
                    "items":
                        [
                            {
                                "value":0,
                                "name":"нет детей",
                                "orderBy":0
                            },
                            {
                                "value":1,
                                "name":"один ребёнок",
                                "orderBy":1
                            },
                            {
                                "value":2,
                                "name":"два и более детей",
                                "orderBy":2
                            }
                         ]
                 },
                 {
                    "id":14,
                    "isVisible":0,
                    "name":"Рекомендация",
                    "typeName":"Recomendation",
                    "isReadonly":0,
                    "kind":8,
                    "requirementKind":1,
                    "orderBy":16,
                    "groupId":1,
                    "items":
                        [
                            {
                                "value":0,
                                "name":"доверяю как себе!",
                                "orderBy":0
                            },
                            {
                                "value":1,
                                "name":"наш человек",
                                "orderBy":1
                            },
                            {
                                "value":2,
                                "name":"да, конечно рекомендую",
                                "orderBy":2
                            },
                            {
                                "value":3,
                                "name":"можно попробовать",
                                "orderBy":3
                            },
                            {
                                "value":4,
                                "name":"на усмотрение REGA",
                                "orderBy":4
                            }
                         ]
                 },
                 {
                    "id":12,
                    "isVisible":1,
                    "name":"Образование",
                    "typeName":"Education",
                    "isReadonly":0,
                    "kind":8,
                    "requirementKind":1,
                    "orderBy":14,
                    "groupId":1,
                    "items":
                        [
                            {
                                "value":0,
                                "name":"специальное техническое",
                                "orderBy":0
                            },
                            {
                                "value":1,
                                "name":"среднее",
                                "orderBy":1
                            },
                            {
                                "value":2,
                                "name":"высшее",
                                "orderBy":2
                            },
                            {
                                "value":3,
                                "name":"неполное высшее",
                                "orderBy":3
                            },
                            {
                                "value":4,
                                "name":"среднетехническое",
                                "orderBy":4
                            }
                         ]
                 }
            ],
        "version":6
    },
    "poll":false
}